{
	"workername": "bucketworker",
	"type": "load",
	"executor": "docker",
	"params": [
		{
			"name": "Grant read permission object by canonical-user-id",
			"key": "W_GRANTEE_READ",
			"description": "",
			"type": "ascii"
		},
		{
			"name": "Max Intake, max amount of messages to use.",
			"key": "W_MAX_INTAKE",
			"description": "",
			"type": "ascii"
		},
		{
			"name": "Compression type to use (default: 'none').",
			"key": "W_COMPRESS",
			"description": "options: 'gzip', 'zlib', 'none'",
			"type": "ascii"
		},
		{
			"name": "Bucket URL",
			"key": "W_BUCKET_URL",
			"description": "ex. s3://mybucket?region=eu-central-1",
			"type": "ascii"
		},
		{
			"name": "AWS Access Key for accessing S3 bucket",
			"key": "AWS_ACCESS_KEY_ID",
			"description": "",
			"type": "ascii"
		},
		{
			"name": "AWS Secret Access Key for accessing S3 bucket",
			"key": "AWS_SECRET_ACCESS_KEY",
			"description": "",
			"type": "ascii"
		},
		{
			"name": "Object Name, name to give to the bucket object.",
			"key": "W_OBJECT_NAME",
			"description": "",
			"type": "ascii"
		}
	],
    "creator": "DutchSec",
    "mininputs": "1",
    "maxinputs": "1000",
    "minoutputs": "0",
    "maxoutputs": "0"
}
